Exercice: contributions à la croissance
…
Transformation du format large au long et inversement

Pour pivoter notre tableau data, on peut utiliser la fonction pivot_longer() du package tidyverse comme suit: on filtre les variables que l’on veut garder dans notre nouveau tableau avec la fonction select(), puis on utilise la fonction pivot_long() qui prend l’argument cols qui spécifie les variables que l’on veut pivoter. Ici, nous voulons pivoter toutes les variables sauf les années, donc la manière la plus simple est de placer le signe - devant annees afin d’indiquer que toutes les variables doivent être pivotées sauf la variable annees:

data5 <- 
data4 %>% 
  select(annees, contr_c, contr_i, contr_g, contr_x, contr_m) %>% # ne sélectionner que les années et les variables de contributions à la croissance
  pivot_longer(cols = -annees) %>% # pivoter toutes les variables sauf la variable années
  drop_na() # enlever les valeurs NA du nouveau de tableau

data5

# A tibble: 225 × 3
   annees name       value
    <dbl> <chr>      <dbl>
 1   1981 contr_c  0.0389 
 2   1981 contr_i  0.00833
 3   1981 contr_g  0.0245 
 4   1981 contr_x  0.0507 
 5   1981 contr_m -0.0259 
 6   1982 contr_c  0.0338 
 7   1982 contr_i  0.00799
 8   1982 contr_g  0.00165
 9   1982 contr_x -0.0126 
10   1982 contr_m  0.0129 
# ℹ 215 more rows
…
