Atelier PWT – Séminaire les mesures de l’économie
…
On pourrait aussi avoir des graphiques séparés selon le type de mesure du PIB, mais pour cela il faut transformer le jeux de données du format large au format long avec pivot_longer() avant de le passer dans la fonction ggplot

pwt %>% 
  pivot_longer(cols = 5:13,
               names_to = "indicateur",
               values_to = "value")

# A tibble: 13,860 × 6
   rownames country   isocode  year indicateur      value
      <int> <chr>     <chr>   <int> <chr>           <dbl>
 1        1 Australia AUS      1950 pop             8.35 
 2        1 Australia AUS      1950 hc              2.67 
 3        1 Australia AUS      1950 rgdpna     127461.   
 4        1 Australia AUS      1950 rgdpo      114135.   
 5        1 Australia AUS      1950 rgdpe      121994.   
 6        1 Australia AUS      1950 labsh           0.680
 7        1 Australia AUS      1950 avh          2171.   
 8        1 Australia AUS      1950 emp             3.43 
 9        1 Australia AUS      1950 rnna       639991.   
10        2 Australia AUS      1951 pop             8.60 
# ℹ 13,850 more rows
…
